%YAML 1.1
%TAG !u! tag:unity3d.com,2011:
--- !u!114 &11400000
MonoBehaviour:
  m_ObjectHideFlags: 0
  m_CorrespondingSourceObject: {fileID: 0}
  m_PrefabInstance: {fileID: 0}
  m_PrefabAsset: {fileID: 0}
  m_GameObject: {fileID: 0}
  m_Enabled: 1
  m_EditorHideFlags: 0
  m_Script: {fileID: 11500000, guid: 84486b13e9da29447a68f84c54c94deb, type: 3}
  m_Name: FishieSmol
  m_EditorClassIdentifier: 
  name: Smolfish
  speed: 0.05
  reproThreshold: 8
  reproductionRate: 2
  adultSize: 1
  babySize: 0.1
  randomSpawnRate: 0.05
  minX: -7.5
  maxX: 7.5
  minY: -3.1
  maxY: 5
